%YAML 1.1
%TAG !u! tag:unity3d.com,2011:
--- !u!29 &1
OcclusionCullingSettings:
  m_ObjectHideFlags: 0
  serializedVersion: 2
  m_OcclusionBakeSettings:
    smallestOccluder: 5
    smallestHole: 0.25
    backfaceThreshold: 100
  m_SceneGUID: 00000000000000000000000000000000
  m_OcclusionCullingData: {fileID: 0}
--- !u!104 &2
RenderSettings:
  m_ObjectHideFlags: 0
  serializedVersion: 9
  m_Fog: 0
  m_FogColor: {r: 0.5, g: 0.5, b: 0.5, a: 1}
  m_FogMode: 3
  m_FogDensity: 0.01
  m_LinearFogStart: 0
  m_LinearFogEnd: 300
  m_AmbientSkyColor: {r: 0.212, g: 0.227, b: 0.259, a: 1}
  m_AmbientEquatorColor: {r: 0.114, g: 0.125, b: 0.133, a: 1}
  m_AmbientGroundColor: {r: 0.047, g: 0.043, b: 0.035, a: 1}
  m_AmbientIntensity: 1
  m_AmbientMode: 3
  m_SubtractiveShadowColor: {r: 0.42, g: 0.478, b: 0.627, a: 1}
  m_SkyboxMaterial: {fileID: 0}
  m_HaloStrength: 0.5
  m_FlareStrength: 1
  m_FlareFadeSpeed: 3
  m_HaloTexture: {fileID: 0}
  m_SpotCookie: {fileID: 10001, guid: 0000000000000000e000000000000000, type: 0}
  m_DefaultReflectionMode: 0
  m_DefaultReflectionResolution: 128
  m_ReflectionBounces: 1
  m_ReflectionIntensity: 1
  m_CustomReflection: {fileID: 0}
  m_Sun: {fileID: 0}
  m_IndirectSpecularColor: {r: 0, g: 0, b: 0, a: 1}
  m_UseRadianceAmbientProbe: 0
--- !u!157 &3
LightmapSettings:
  m_ObjectHideFlags: 0
  serializedVersion: 11
  m_GIWorkflowMode: 1
  m_GISettings:
    serializedVersion: 2
    m_BounceScale: 1
    m_IndirectOutputScale: 1
    m_AlbedoBoost: 1
    m_EnvironmentLightingMode: 0
    m_EnableBakedLightmaps: 0
    m_EnableRealtimeLightmaps: 0
  m_LightmapEditorSettings:
    serializedVersion: 12
    m_Resolution: 2
    m_BakeResolution: 40
    m_AtlasSize: 1024
    m_AO: 0
    m_AOMaxDistance: 1
    m_CompAOExponent: 1
    m_CompAOExponentDirect: 0
    m_ExtractAmbientOcclusion: 0
    m_Padding: 2
    m_LightmapParameters: {fileID: 0}
    m_LightmapsBakeMode: 1
    m_TextureCompression: 1
    m_FinalGather: 0
    m_FinalGatherFiltering: 1
    m_FinalGatherRayCount: 256
    m_ReflectionCompression: 2
    m_MixedBakeMode: 2
    m_BakeBackend: 0
    m_PVRSampling: 1
    m_PVRDirectSampleCount: 32
    m_PVRSampleCount: 500
    m_PVRBounces: 2
    m_PVREnvironmentSampleCount: 500
    m_PVREnvironmentReferencePointCount: 2048
    m_PVRFilteringMode: 2
    m_PVRDenoiserTypeDirect: 0
    m_PVRDenoiserTypeIndirect: 0
    m_PVRDenoiserTypeAO: 0
    m_PVRFilterTypeDirect: 0
    m_PVRFilterTypeIndirect: 0
    m_PVRFilterTypeAO: 0
    m_PVREnvironmentMIS: 0
    m_PVRCulling: 1
    m_PVRFilteringGaussRadiusDirect: 1
    m_PVRFilteringGaussRadiusIndirect: 5
    m_PVRFilteringGaussRadiusAO: 2
    m_PVRFilteringAtrousPositionSigmaDirect: 0.5
    m_PVRFilteringAtrousPositionSigmaIndirect: 2
    m_PVRFilteringAtrousPositionSigmaAO: 1
    m_ExportTrainingData: 0
    m_TrainingDataDestination: TrainingData
  m_LightingDataAsset: {fileID: 0}
  m_UseShadowmask: 1
--- !u!196 &4
NavMeshSettings:
  serializedVersion: 2
  m_ObjectHideFlags: 0
  m_BuildSettings:
    serializedVersion: 2
    agentTypeID: 0
    agentRadius: 0.5
    agentHeight: 2
    agentSlope: 45
    agentClimb: 0.4
    ledgeDropHeight: 0
    maxJumpAcrossDistance: 0
    minRegionArea: 2
    manualCellSize: 0
    cellSize: 0.16666667
    manualTileSize: 0
    tileSize: 256
    accuratePlacement: 0
    debug:
      m_Flags: 0
  m_NavMeshData: {fileID: 0}
--- !u!1 &519420028
GameObject:
  m_ObjectHideFlags: 0
  m_CorrespondingSourceObject: {fileID: 0}
  m_PrefabInstance: {fileID: 0}
  m_PrefabAsset: {fileID: 0}
  serializedVersion: 6
  m_Component:
  - component: {fileID: 519420032}
  - component: {fileID: 519420031}
  - component: {fileID: 519420029}
  m_Layer: 0
  m_Name: Main Camera
  m_TagString: MainCamera
  m_Icon: {fileID: 0}
  m_NavMeshLayer: 0
  m_StaticEditorFlags: 0
  m_IsActive: 1
--- !u!81 &519420029
AudioListener:
  m_ObjectHideFlags: 0
  m_CorrespondingSourceObject: {fileID: 0}
  m_PrefabInstance: {fileID: 0}
  m_PrefabAsset: {fileID: 0}
  m_GameObject: {fileID: 519420028}
  m_Enabled: 1
--- !u!20 &519420031
Camera:
  m_ObjectHideFlags: 0
  m_CorrespondingSourceObject: {fileID: 0}
  m_PrefabInstance: {fileID: 0}
  m_PrefabAsset: {fileID: 0}
  m_GameObject: {fileID: 519420028}
  m_Enabled: 1
  serializedVersion: 2
  m_ClearFlags: 2
  m_BackGroundColor: {r: 1, g: 1, b: 1, a: 0}
  m_projectionMatrixMode: 1
  m_GateFitMode: 2
  m_FOVAxisMode: 0
  m_SensorSize: {x: 36, y: 24}
  m_LensShift: {x: 0, y: 0}
  m_FocalLength: 50
  m_NormalizedViewPortRect:
    serializedVersion: 2
    x: 0
    y: 0
    width: 1
    height: 1
  near clip plane: 0.3
  far clip plane: 1000
  field of view: 60
  orthographic: 1
  orthographic size: 5
  m_Depth: -1
  m_CullingMask:
    serializedVersion: 2
    m_Bits: 4294967295
  m_RenderingPath: -1
  m_TargetTexture: {fileID: 0}
  m_TargetDisplay: 0
  m_TargetEye: 0
  m_HDR: 1
  m_AllowMSAA: 0
  m_AllowDynamicResolution: 0
  m_ForceIntoRT: 0
  m_OcclusionCulling: 0
  m_StereoConvergence: 10
  m_StereoSeparation: 0.022
--- !u!4 &519420032
Transform:
  m_ObjectHideFlags: 0
  m_CorrespondingSourceObject: {fileID: 0}
  m_PrefabInstance: {fileID: 0}
  m_PrefabAsset: {fileID: 0}
  m_GameObject: {fileID: 519420028}
  m_LocalRotation: {x: -0, y: -0, z: -0, w: 1}
  m_LocalPosition: {x: 0, y: 0, z: -10}
  m_LocalScale: {x: 15.825397, y: 14.823122, z: 13.34081}
  m_Children: []
  m_Father: {fileID: 694165496}
  m_RootOrder: 0
  m_LocalEulerAnglesHint: {x: 0, y: 0, z: 0}
--- !u!1 &550470396
GameObject:
  m_ObjectHideFlags: 0
  m_CorrespondingSourceObject: {fileID: 0}
  m_PrefabInstance: {fileID: 0}
  m_PrefabAsset: {fileID: 0}
  serializedVersion: 6
  m_Component:
  - component: {fileID: 550470397}
  - component: {fileID: 550470399}
  - component: {fileID: 550470398}
  m_Layer: 5
  m_Name: Time
  m_TagString: Untagged
  m_Icon: {fileID: 0}
  m_NavMeshLayer: 0
  m_StaticEditorFlags: 0
  m_IsActive: 1
--- !u!224 &550470397
RectTransform:
  m_ObjectHideFlags: 0
  m_CorrespondingSourceObject: {fileID: 0}
  m_PrefabInstance: {fileID: 0}
  m_PrefabAsset: {fileID: 0}
  m_GameObject: {fileID: 550470396}
  m_LocalRotation: {x: 0, y: 0, z: 0, w: 1}
  m_LocalPosition: {x: 0, y: 0, z: 0}
  m_LocalScale: {x: 1, y: 1, z: 1}
  m_Children: []
  m_Father: {fileID: 800495533}
  m_RootOrder: 0
  m_LocalEulerAnglesHint: {x: 0, y: 0, z: 0}
  m_AnchorMin: {x: 0.5, y: 0.5}
  m_AnchorMax: {x: 0.5, y: 0.5}
  m_AnchoredPosition: {x: 326.5, y: 817}
  m_SizeDelta: {x: 285.3, y: 150.5}
  m_Pivot: {x: 0.5, y: 0.5}
--- !u!114 &550470398
MonoBehaviour:
  m_ObjectHideFlags: 0
  m_CorrespondingSourceObject: {fileID: 0}
  m_PrefabInstance: {fileID: 0}
  m_PrefabAsset: {fileID: 0}
  m_GameObject: {fileID: 550470396}
  m_Enabled: 1
  m_EditorHideFlags: 0
  m_Script: {fileID: 708705254, guid: f70555f144d8491a825f0804e09c671c, type: 3}
  m_Name: 
  m_EditorClassIdentifier: 
  m_Material: {fileID: 0}
  m_Color: {r: 1, g: 1, b: 1, a: 1}
  m_RaycastTarget: 1
  m_OnCullStateChanged:
    m_PersistentCalls:
      m_Calls: []
    m_TypeName: UnityEngine.UI.MaskableGraphic+CullStateChangedEvent, UnityEngine.UI,
      Version=1.0.0.0, Culture=neutral, PublicKeyToken=null
  m_FontData:
    m_Font: {fileID: 10102, guid: 0000000000000000e000000000000000, type: 0}
    m_FontSize: 120
    m_FontStyle: 0
    m_BestFit: 0
    m_MinSize: 1
    m_MaxSize: 120
    m_Alignment: 2
    m_AlignByGeometry: 0
    m_RichText: 1
    m_HorizontalOverflow: 0
    m_VerticalOverflow: 0
    m_LineSpacing: 1
  m_Text: '-'
--- !u!222 &550470399
CanvasRenderer:
  m_ObjectHideFlags: 0
  m_CorrespondingSourceObject: {fileID: 0}
  m_PrefabInstance: {fileID: 0}
  m_PrefabAsset: {fileID: 0}
  m_GameObject: {fileID: 550470396}
  m_CullTransparentMesh: 0
--- !u!1 &694165494
GameObject:
  m_ObjectHideFlags: 0
  m_CorrespondingSourceObject: {fileID: 0}
  m_PrefabInstance: {fileID: 0}
  m_PrefabAsset: {fileID: 0}
  serializedVersion: 6
  m_Component:
  - component: {fileID: 694165496}
  - component: {fileID: 694165495}
  - component: {fileID: 694165498}
  - component: {fileID: 694165497}
  m_Layer: 0
  m_Name: Onigiri
  m_TagString: onigiri
  m_Icon: {fileID: 0}
  m_NavMeshLayer: 0
  m_StaticEditorFlags: 0
  m_IsActive: 1
--- !u!212 &694165495
SpriteRenderer:
  m_ObjectHideFlags: 0
  m_CorrespondingSourceObject: {fileID: 0}
  m_PrefabInstance: {fileID: 0}
  m_PrefabAsset: {fileID: 0}
  m_GameObject: {fileID: 694165494}
  m_Enabled: 1
  m_CastShadows: 0
  m_ReceiveShadows: 0
  m_DynamicOccludee: 1
  m_MotionVectors: 1
  m_LightProbeUsage: 1
  m_ReflectionProbeUsage: 1
  m_RenderingLayerMask: 1
  m_RendererPriority: 0
  m_Materials:
  - {fileID: 10754, guid: 0000000000000000f000000000000000, type: 0}
  m_StaticBatchInfo:
    firstSubMesh: 0
    subMeshCount: 0
  m_StaticBatchRoot: {fileID: 0}
  m_ProbeAnchor: {fileID: 0}
  m_LightProbeVolumeOverride: {fileID: 0}
  m_ScaleInLightmap: 1
  m_ReceiveGI: 1
  m_PreserveUVs: 0
  m_IgnoreNormalsForChartDetection: 0
  m_ImportantGI: 0
  m_StitchLightmapSeams: 0
  m_SelectedEditorRenderState: 0
  m_MinimumChartSize: 4
  m_AutoUVMaxDistance: 0.5
  m_AutoUVMaxAngle: 89
  m_LightmapParameters: {fileID: 0}
  m_SortingLayerID: 0
  m_SortingLayer: 0
  m_SortingOrder: 3
  m_Sprite: {fileID: 21300000, guid: f45aceee7e6798545967d357dfc880e5, type: 3}
  m_Color: {r: 1, g: 1, b: 1, a: 1}
  m_FlipX: 0
  m_FlipY: 0
  m_DrawMode: 0
  m_Size: {x: 4, y: 3.75}
  m_AdaptiveModeThreshold: 0.5
  m_SpriteTileMode: 0
  m_WasSpriteAssigned: 1
  m_MaskInteraction: 0
  m_SpriteSortPoint: 0
--- !u!4 &694165496
Transform:
  m_ObjectHideFlags: 0
  m_CorrespondingSourceObject: {fileID: 0}
  m_PrefabInstance: {fileID: 0}
  m_PrefabAsset: {fileID: 0}
  m_GameObject: {fileID: 694165494}
  m_LocalRotation: {x: 0, y: 0, z: 0, w: 1}
  m_LocalPosition: {x: 0.029, y: 0.12, z: 0}
  m_LocalScale: {x: 0.21028455, y: 0.22450303, z: 0.24944781}
  m_Children:
  - {fileID: 519420032}
  m_Father: {fileID: 0}
  m_RootOrder: 0
  m_LocalEulerAnglesHint: {x: 0, y: 0, z: 0}
--- !u!50 &694165497
Rigidbody2D:
  serializedVersion: 4
  m_ObjectHideFlags: 0
  m_CorrespondingSourceObject: {fileID: 0}
  m_PrefabInstance: {fileID: 0}
  m_PrefabAsset: {fileID: 0}
  m_GameObject: {fileID: 694165494}
  m_BodyType: 0
  m_Simulated: 1
  m_UseFullKinematicContacts: 0
  m_UseAutoMass: 0
  m_Mass: 0.0001
  m_LinearDrag: 0
  m_AngularDrag: 0
  m_GravityScale: 1
  m_Material: {fileID: 0}
  m_Interpolate: 0
  m_SleepingMode: 1
  m_CollisionDetection: 1
  m_Constraints: 4
--- !u!58 &694165498
CircleCollider2D:
  m_ObjectHideFlags: 0
  m_CorrespondingSourceObject: {fileID: 0}
  m_PrefabInstance: {fileID: 0}
  m_PrefabAsset: {fileID: 0}
  m_GameObject: {fileID: 694165494}
  m_Enabled: 1
  m_Density: 1
  m_Material: {fileID: 0}
  m_IsTrigger: 0
  m_UsedByEffector: 0
  m_UsedByComposite: 0
  m_Offset: {x: -0.009315486, y: -0.15375762}
  serializedVersion: 2
  m_Radius: 0.79387146
--- !u!1 &701393607
GameObject:
  m_ObjectHideFlags: 0
  m_CorrespondingSourceObject: {fileID: 0}
  m_PrefabInstance: {fileID: 0}
  m_PrefabAsset: {fileID: 0}
  serializedVersion: 6
  m_Component:
  - component: {fileID: 701393608}
  - component: {fileID: 701393610}
  - component: {fileID: 701393609}
  m_Layer: 0
  m_Name: Goal
  m_TagString: Untagged
  m_Icon: {fileID: 0}
  m_NavMeshLayer: 0
  m_StaticEditorFlags: 0
  m_IsActive: 1
--- !u!4 &701393608
Transform:
  m_ObjectHideFlags: 0
  m_CorrespondingSourceObject: {fileID: 0}
  m_PrefabInstance: {fileID: 0}
  m_PrefabAsset: {fileID: 0}
  m_GameObject: {fileID: 701393607}
  m_LocalRotation: {x: -0, y: -0, z: 0.8210994, w: 0.57078534}
  m_LocalPosition: {x: 0, y: 0, z: 0}
  m_LocalScale: {x: 2.6572034, y: 2.6572034, z: 2.6572}
  m_Children: []
  m_Father: {fileID: 2049825793}
  m_RootOrder: 3
  m_LocalEulerAnglesHint: {x: 0, y: 0, z: 0}
--- !u!114 &701393609
MonoBehaviour:
  m_ObjectHideFlags: 0
  m_CorrespondingSourceObject: {fileID: 0}
  m_PrefabInstance: {fileID: 0}
  m_PrefabAsset: {fileID: 0}
  m_GameObject: {fileID: 701393607}
  m_Enabled: 1
  m_EditorHideFlags: 0
  m_Script: {fileID: 11500000, guid: c1ddb6a4b7fb3504696602dc3155d9b2, type: 3}
  m_Name: 
  m_EditorClassIdentifier: 
--- !u!61 &701393610
BoxCollider2D:
  m_ObjectHideFlags: 0
  m_CorrespondingSourceObject: {fileID: 0}
  m_PrefabInstance: {fileID: 0}
  m_PrefabAsset: {fileID: 0}
  m_GameObject: {fileID: 701393607}
  m_Enabled: 1
  m_Density: 1
  m_Material: {fileID: 0}
  m_IsTrigger: 1
  m_UsedByEffector: 0
  m_UsedByComposite: 0
  m_Offset: {x: -2.18, y: -1.27}
  m_SpriteTilingProperty:
    border: {x: 0, y: 0, z: 0, w: 0}
    pivot: {x: 0, y: 0}
    oldSize: {x: 0, y: 0}
    newSize: {x: 0, y: 0}
    adaptiveTilingThreshold: 0
    drawMode: 0
    adaptiveTiling: 0
  m_AutoTiling: 0
  serializedVersion: 2
  m_Size: {x: 0.42, y: 0.5}
  m_EdgeRadius: 0
--- !u!1 &800495529
GameObject:
  m_ObjectHideFlags: 0
  m_CorrespondingSourceObject: {fileID: 0}
  m_PrefabInstance: {fileID: 0}
  m_PrefabAsset: {fileID: 0}
  serializedVersion: 6
  m_Component:
  - component: {fileID: 800495533}
  - component: {fileID: 800495532}
  - component: {fileID: 800495531}
  - component: {fileID: 800495530}
  m_Layer: 5
  m_Name: Canvas
  m_TagString: Untagged
  m_Icon: {fileID: 0}
  m_NavMeshLayer: 0
  m_StaticEditorFlags: 0
  m_IsActive: 1
--- !u!114 &800495530
MonoBehaviour:
  m_ObjectHideFlags: 0
  m_CorrespondingSourceObject: {fileID: 0}
  m_PrefabInstance: {fileID: 0}
  m_PrefabAsset: {fileID: 0}
  m_GameObject: {fileID: 800495529}
  m_Enabled: 1
  m_EditorHideFlags: 0
  m_Script: {fileID: 1301386320, guid: f70555f144d8491a825f0804e09c671c, type: 3}
  m_Name: 
  m_EditorClassIdentifier: 
  m_IgnoreReversedGraphics: 1
  m_BlockingObjects: 0
  m_BlockingMask:
    serializedVersion: 2
    m_Bits: 4294967295
--- !u!114 &800495531
MonoBehaviour:
  m_ObjectHideFlags: 0
  m_CorrespondingSourceObject: {fileID: 0}
  m_PrefabInstance: {fileID: 0}
  m_PrefabAsset: {fileID: 0}
  m_GameObject: {fileID: 800495529}
  m_Enabled: 1
  m_EditorHideFlags: 0
  m_Script: {fileID: 1980459831, guid: f70555f144d8491a825f0804e09c671c, type: 3}
  m_Name: 
  m_EditorClassIdentifier: 
  m_UiScaleMode: 0
  m_ReferencePixelsPerUnit: 100
  m_ScaleFactor: 1
  m_ReferenceResolution: {x: 800, y: 600}
  m_ScreenMatchMode: 0
  m_MatchWidthOrHeight: 0
  m_PhysicalUnit: 3
  m_FallbackScreenDPI: 96
  m_DefaultSpriteDPI: 96
  m_DynamicPixelsPerUnit: 1
--- !u!223 &800495532
Canvas:
  m_ObjectHideFlags: 0
  m_CorrespondingSourceObject: {fileID: 0}
  m_PrefabInstance: {fileID: 0}
  m_PrefabAsset: {fileID: 0}
  m_GameObject: {fileID: 800495529}
  m_Enabled: 1
  serializedVersion: 3
  m_RenderMode: 0
  m_Camera: {fileID: 0}
  m_PlaneDistance: 100
  m_PixelPerfect: 0
  m_ReceivesEvents: 1
  m_OverrideSorting: 0
  m_OverridePixelPerfect: 0
  m_SortingBucketNormalizedSize: 0
  m_AdditionalShaderChannelsFlag: 0
  m_SortingLayerID: 0
  m_SortingOrder: 0
  m_TargetDisplay: 0
--- !u!224 &800495533
RectTransform:
  m_ObjectHideFlags: 0
  m_CorrespondingSourceObject: {fileID: 0}
  m_PrefabInstance: {fileID: 0}
  m_PrefabAsset: {fileID: 0}
  m_GameObject: {fileID: 800495529}
  m_LocalRotation: {x: 0, y: 0, z: 0, w: 1}
  m_LocalPosition: {x: 0, y: 0, z: 0}
  m_LocalScale: {x: 0, y: 0, z: 0}
  m_Children:
  - {fileID: 550470397}
  m_Father: {fileID: 0}
  m_RootOrder: 2
  m_LocalEulerAnglesHint: {x: 0, y: 0, z: 0}
  m_AnchorMin: {x: 0, y: 0}
  m_AnchorMax: {x: 0, y: 0}
  m_AnchoredPosition: {x: 0, y: 0}
  m_SizeDelta: {x: 0, y: 0}
  m_Pivot: {x: 0, y: 0}
--- !u!1 &1093134443
GameObject:
  m_ObjectHideFlags: 0
  m_CorrespondingSourceObject: {fileID: 0}
  m_PrefabInstance: {fileID: 0}
  m_PrefabAsset: {fileID: 0}
  serializedVersion: 6
  m_Component:
  - component: {fileID: 1093134446}
  - component: {fileID: 1093134445}
  - component: {fileID: 1093134444}
  m_Layer: 0
  m_Name: Hito_Head
  m_TagString: Untagged
  m_Icon: {fileID: 0}
  m_NavMeshLayer: 0
  m_StaticEditorFlags: 0
  m_IsActive: 1
--- !u!60 &1093134444
PolygonCollider2D:
  m_ObjectHideFlags: 0
  m_CorrespondingSourceObject: {fileID: 0}
  m_PrefabInstance: {fileID: 0}
  m_PrefabAsset: {fileID: 0}
  m_GameObject: {fileID: 1093134443}
  m_Enabled: 1
  m_Density: 1
  m_Material: {fileID: 0}
  m_IsTrigger: 0
  m_UsedByEffector: 0
  m_UsedByComposite: 0
  m_Offset: {x: 0, y: 0}
  m_SpriteTilingProperty:
    border: {x: 0, y: 0, z: 0, w: 0}
    pivot: {x: 0.5, y: 0.5}
    oldSize: {x: 10.24, y: 10.24}
    newSize: {x: 10.24, y: 10.24}
    adaptiveTilingThreshold: 0.5
    drawMode: 0
    adaptiveTiling: 0
  m_AutoTiling: 0
  m_Points:
    m_Paths:
    - - {x: 0.98999995, y: 2.9299998}
      - {x: 1.12, y: 3.11}
      - {x: 1.15, y: 3.21}
      - {x: 1.15, y: 3.29}
      - {x: 1.14, y: 3.33}
      - {x: 1.06, y: 3.31}
      - {x: 0.9, y: 3.3899999}
      - {x: 0.62, y: 3.3899999}
      - {x: 0.32999998, y: 3.34}
      - {x: 0.21, y: 3.25}
      - {x: 0.17, y: 3.21}
      - {x: 0.06, y: 3.11}
      - {x: -0.21, y: 2.76}
      - {x: -0.21, y: 2.71}
      - {x: -0.19999999, y: 2.69}
      - {x: -0.11, y: 2.6399999}
      - {x: 0, y: 2.6}
      - {x: 0.38, y: 2.6}
      - {x: 0.59999996, y: 2.6599998}
      - {x: 0.79999995, y: 2.73}
      - {x: 0.85999995, y: 2.81}
    - - {x: 0.63, y: 2.6399999}
      - {x: 0.65999997, y: 2.6499999}
      - {x: 0.65999997, y: 2.6799998}
      - {x: 0.63, y: 2.69}
      - {x: 0.61, y: 2.6699998}
    - - {x: -0.39999998, y: 3.05}
      - {x: -0.21, y: 3.29}
      - {x: -0.17, y: 3.31}
      - {x: 0, y: 3.4399998}
      - {x: 0.19999999, y: 3.49}
      - {x: 0.57, y: 3.57}
      - {x: 0.66999996, y: 3.6499999}
      - {x: 0.76, y: 3.78}
      - {x: 0.85999995, y: 3.84}
      - {x: 1.01, y: 3.83}
      - {x: 1.16, y: 3.8}
      - {x: 1.17, y: 3.81}
      - {x: 1.17, y: 3.8899999}
      - {x: 1.0699999, y: 4.1}
      - {x: 0.98999995, y: 4.24}
      - {x: 0.88, y: 4.3199997}
      - {x: 0.9, y: 4.39}
      - {x: 0.84999996, y: 4.44}
      - {x: 0.47, y: 4.56}
      - {x: 0.34, y: 4.5899997}
      - {x: 0.02, y: 4.5899997}
      - {x: -0.11, y: 4.56}
      - {x: -0.37, y: 4.43}
      - {x: -0.45999998, y: 4.35}
      - {x: -0.61, y: 4.19}
      - {x: -0.69, y: 4.08}
      - {x: -0.78999996, y: 3.86}
      - {x: -0.78999996, y: 3.4099998}
      - {x: -0.78, y: 3.35}
      - {x: -0.66999996, y: 3.05}
      - {x: -0.48, y: 2.82}
      - {x: -0.42999998, y: 2.81}
      - {x: -0.41, y: 2.81}
      - {x: -0.39, y: 2.83}
      - {x: -0.39, y: 2.84}
      - {x: -0.42999998, y: 2.8999999}
    - - {x: 0.94, y: 4.2799997}
      - {x: 0.96999997, y: 4.29}
      - {x: 0.96999997, y: 4.3199997}
      - {x: 0.94, y: 4.33}
      - {x: 0.91999996, y: 4.31}
--- !u!212 &1093134445
SpriteRenderer:
  m_ObjectHideFlags: 0
  m_CorrespondingSourceObject: {fileID: 0}
  m_PrefabInstance: {fileID: 0}
  m_PrefabAsset: {fileID: 0}
  m_GameObject: {fileID: 1093134443}
  m_Enabled: 1
  m_CastShadows: 0
  m_ReceiveShadows: 0
  m_DynamicOccludee: 1
  m_MotionVectors: 1
  m_LightProbeUsage: 1
  m_ReflectionProbeUsage: 1
  m_RenderingLayerMask: 1
  m_RendererPriority: 0
  m_Materials:
  - {fileID: 10754, guid: 0000000000000000f000000000000000, type: 0}
  m_StaticBatchInfo:
    firstSubMesh: 0
    subMeshCount: 0
  m_StaticBatchRoot: {fileID: 0}
  m_ProbeAnchor: {fileID: 0}
  m_LightProbeVolumeOverride: {fileID: 0}
  m_ScaleInLightmap: 1
  m_ReceiveGI: 1
  m_PreserveUVs: 0
  m_IgnoreNormalsForChartDetection: 0
  m_ImportantGI: 0
  m_StitchLightmapSeams: 0
  m_SelectedEditorRenderState: 0
  m_MinimumChartSize: 4
  m_AutoUVMaxDistance: 0.5
  m_AutoUVMaxAngle: 89
  m_LightmapParameters: {fileID: 0}
  m_SortingLayerID: 0
  m_SortingLayer: 0
  m_SortingOrder: 2
  m_Sprite: {fileID: 21300000, guid: 79c92210b9800fd4eac2b4930ab88f48, type: 3}
  m_Color: {r: 1, g: 1, b: 1, a: 1}
  m_FlipX: 0
  m_FlipY: 0
  m_DrawMode: 0
  m_Size: {x: 10.24, y: 10.24}
  m_AdaptiveModeThreshold: 0.5
  m_SpriteTileMode: 0
  m_WasSpriteAssigned: 1
  m_MaskInteraction: 0
  m_SpriteSortPoint: 0
--- !u!4 &1093134446
Transform:
  m_ObjectHideFlags: 0
  m_CorrespondingSourceObject: {fileID: 0}
  m_PrefabInstance: {fileID: 0}
  m_PrefabAsset: {fileID: 0}
  m_GameObject: {fileID: 1093134443}
  m_LocalRotation: {x: -0, y: -0, z: 0.8210994, w: 0.57078534}
  m_LocalPosition: {x: 0, y: 0, z: 0}
  m_LocalScale: {x: 2.6572018, y: 2.6572018, z: 2.6572}
  m_Children: []
  m_Father: {fileID: 2049825793}
  m_RootOrder: 0
  m_LocalEulerAnglesHint: {x: 0, y: 0, z: 110.39}
--- !u!1 &1228034033
GameObject:
  m_ObjectHideFlags: 0
  m_CorrespondingSourceObject: {fileID: 0}
  m_PrefabInstance: {fileID: 0}
  m_PrefabAsset: {fileID: 0}
  serializedVersion: 6
  m_Component:
  - component: {fileID: 1228034034}
  - component: {fileID: 1228034035}
  m_Layer: 0
  m_Name: Timer
  m_TagString: Untagged
  m_Icon: {fileID: 0}
  m_NavMeshLayer: 0
  m_StaticEditorFlags: 0
  m_IsActive: 1
--- !u!4 &1228034034
Transform:
  m_ObjectHideFlags: 0
  m_CorrespondingSourceObject: {fileID: 0}
  m_PrefabInstance: {fileID: 0}
  m_PrefabAsset: {fileID: 0}
  m_GameObject: {fileID: 1228034033}
  m_LocalRotation: {x: 0, y: 0, z: 0, w: 1}
  m_LocalPosition: {x: -222.34604, y: 1756.6967, z: -35.30135}
  m_LocalScale: {x: 1, y: 1, z: 1}
  m_Children: []
  m_Father: {fileID: 0}
  m_RootOrder: 1
  m_LocalEulerAnglesHint: {x: 0, y: 0, z: 0}
--- !u!114 &1228034035
MonoBehaviour:
  m_ObjectHideFlags: 0
  m_CorrespondingSourceObject: {fileID: 0}
  m_PrefabInstance: {fileID: 0}
  m_PrefabAsset: {fileID: 0}
  m_GameObject: {fileID: 1228034033}
  m_Enabled: 1
  m_EditorHideFlags: 0
  m_Script: {fileID: 11500000, guid: c3d5dd580f594a249a1af3a9d6344a57, type: 3}
  m_Name: 
  m_EditorClassIdentifier: 
  time: 15
--- !u!1 &1618083108
GameObject:
  m_ObjectHideFlags: 0
  m_CorrespondingSourceObject: {fileID: 0}
  m_PrefabInstance: {fileID: 0}
  m_PrefabAsset: {fileID: 0}
  serializedVersion: 6
  m_Component:
  - component: {fileID: 1618083109}
  - component: {fileID: 1618083111}
  - component: {fileID: 1618083110}
  m_Layer: 0
  m_Name: Hito_Body
  m_TagString: Untagged
  m_Icon: {fileID: 0}
  m_NavMeshLayer: 0
  m_StaticEditorFlags: 0
  m_IsActive: 1
--- !u!4 &1618083109
Transform:
  m_ObjectHideFlags: 0
  m_CorrespondingSourceObject: {fileID: 0}
  m_PrefabInstance: {fileID: 0}
  m_PrefabAsset: {fileID: 0}
  m_GameObject: {fileID: 1618083108}
  m_LocalRotation: {x: -0, y: -0, z: 0.8210994, w: 0.57078534}
  m_LocalPosition: {x: 0, y: 0, z: 0}
  m_LocalScale: {x: 2.6572034, y: 2.6572034, z: 2.6572}
  m_Children: []
  m_Father: {fileID: 2049825793}
  m_RootOrder: 1
  m_LocalEulerAnglesHint: {x: 0, y: 0, z: 0}
--- !u!60 &1618083110
PolygonCollider2D:
  m_ObjectHideFlags: 0
  m_CorrespondingSourceObject: {fileID: 0}
  m_PrefabInstance: {fileID: 0}
  m_PrefabAsset: {fileID: 0}
  m_GameObject: {fileID: 1618083108}
  m_Enabled: 1
  m_Density: 1
  m_Material: {fileID: 0}
  m_IsTrigger: 0
  m_UsedByEffector: 0
  m_UsedByComposite: 0
  m_Offset: {x: 0, y: 0}
  m_SpriteTilingProperty:
    border: {x: 0, y: 0, z: 0, w: 0}
    pivot: {x: 0.5, y: 0.5}
    oldSize: {x: 10.24, y: 10.24}
    newSize: {x: 10.24, y: 10.24}
    adaptiveTilingThreshold: 0.5
    drawMode: 0
    adaptiveTiling: 0
  m_AutoTiling: 0
  m_Points:
    m_Paths:
    - - {x: -0.049999997, y: -4.5299997}
      - {x: 0, y: -4.5}
      - {x: 0.06, y: -4.43}
      - {x: 0.12, y: -4.33}
      - {x: 0.17, y: -4.22}
      - {x: 0.29, y: -3.6799998}
      - {x: 0.35999998, y: -3.36}
      - {x: 0.39, y: -3.29}
      - {x: 0.42, y: -3.08}
      - {x: 0.45, y: -3.06}
      - {x: 0.45, y: -2.99}
      - {x: 0.55, y: -2.53}
      - {x: 0.58, y: -2.3899999}
      - {x: 0.58, y: -2.19}
      - {x: 0.55, y: -2.08}
      - {x: 0.53, y: -2.03}
      - {x: 0.58, y: -2.02}
      - {x: 0.58, y: -1.99}
      - {x: 0.48999998, y: -1.9599999}
      - {x: 0.35999998, y: -1.78}
      - {x: 0.34, y: -1.73}
      - {x: 0.16, y: -1.4499999}
      - {x: 0.11, y: -1.35}
      - {x: -0.089999996, y: -1.0699999}
      - {x: -0.07, y: -1.05}
      - {x: -0.07, y: -1.04}
      - {x: -0.16, y: -0.94}
      - {x: -0.26999998, y: -0.77}
      - {x: -0.35, y: -0.64}
      - {x: -0.28, y: -0.52}
      - {x: -0.22, y: -0.31}
      - {x: -0.01, y: 0.32999998}
      - {x: 0.19, y: 0.94}
      - {x: 0.22, y: 1.04}
      - {x: 0.22999999, y: 1.09}
      - {x: 0.35, y: 0.96999997}
      - {x: 0.38, y: 0.9}
      - {x: 0.44, y: 0.9}
      - {x: 0.5, y: 0.83}
      - {x: 0.57, y: 0.79999995}
      - {x: 0.55, y: 0.75}
      - {x: 0.59, y: 0.74}
      - {x: 0.65, y: 0.71}
      - {x: 0.85999995, y: 0.63}
      - {x: 0.91999996, y: 0.62}
      - {x: 1.04, y: 0.62}
      - {x: 1.17, y: 0.63}
      - {x: 1.28, y: 0.64}
      - {x: 1.42, y: 0.65}
      - {x: 1.52, y: 0.65999997}
      - {x: 1.65, y: 0.66999996}
      - {x: 1.77, y: 0.68}
      - {x: 2.26, y: 0.71999997}
      - {x: 2.55, y: 0.74}
      - {x: 2.6499999, y: 0.77}
      - {x: 2.82, y: 0.84}
      - {x: 2.9399998, y: 0.9}
      - {x: 3, y: 1.01}
      - {x: 3.04, y: 1.11}
      - {x: 3.04, y: 1.36}
      - {x: 2.96, y: 1.49}
      - {x: 2.84, y: 1.5899999}
      - {x: 2.73, y: 1.64}
      - {x: 2.6399999, y: 1.66}
      - {x: 2.51, y: 1.66}
      - {x: 2.26, y: 1.64}
      - {x: 1.9, y: 1.61}
      - {x: 1.67, y: 1.5899999}
      - {x: 1.41, y: 1.5699999}
      - {x: 1.3, y: 1.56}
      - {x: 1.18, y: 1.55}
      - {x: 1, y: 1.68}
      - {x: 0.96999997, y: 1.7199999}
      - {x: 0.83, y: 1.81}
      - {x: 0.65, y: 1.9599999}
      - {x: 0.59999996, y: 2}
      - {x: 0.51, y: 2.09}
      - {x: 0.42999998, y: 2.1599998}
      - {x: 0.34, y: 2.23}
      - {x: 0.26, y: 2.28}
      - {x: 0.17, y: 2.36}
      - {x: 0.16, y: 2.4099998}
      - {x: 0.12, y: 2.3999999}
      - {x: 0.03, y: 2.47}
      - {x: -0.19, y: 2.61}
      - {x: -0.25, y: 2.61}
      - {x: -0.28, y: 2.6}
      - {x: -0.28, y: 2.47}
      - {x: -0.31, y: 2.4099998}
      - {x: -0.37, y: 2.34}
      - {x: -0.56, y: 2.23}
      - {x: -0.71999997, y: 2.1299999}
      - {x: -0.77, y: 2.08}
      - {x: -0.93, y: 2.01}
      - {x: -0.96999997, y: 1.99}
      - {x: -1.02, y: 1.9}
      - {x: -1.0799999, y: 1.78}
      - {x: -1.0799999, y: 1.7199999}
      - {x: -1.06, y: 1.67}
      - {x: -0.97999996, y: 1.5699999}
      - {x: -0.88, y: 1.48}
      - {x: -0.79999995, y: 1.4499999}
      - {x: -0.66999996, y: 1.39}
      - {x: -0.47, y: 1.3399999}
      - {x: -0.37, y: 1.29}
      - {x: -0.34, y: 1.1899999}
      - {x: -0.29999998, y: 1.12}
      - {x: -0.29999998, y: 1.06}
      - {x: -0.35, y: 0.96}
      - {x: -0.45, y: 0.79999995}
      - {x: -0.47, y: 0.71999997}
      - {x: -0.68, y: 0.56}
      - {x: -0.71999997, y: 0.52}
      - {x: -0.81, y: 0.51}
      - {x: -0.90999997, y: 0.45}
      - {x: -0.96999997, y: 0.45}
      - {x: -1.0799999, y: 0.42}
      - {x: -1.18, y: 0.35}
      - {x: -1.17, y: 0.22}
      - {x: -1.12, y: 0.14}
      - {x: -1.0799999, y: 0.11}
      - {x: -1.01, y: 0.08}
      - {x: -0.96, y: -0.01}
      - {x: -0.88, y: -0.06}
      - {x: -0.74, y: -0.17}
      - {x: -0.69, y: -0.19}
      - {x: -0.64, y: -0.25}
      - {x: -0.64, y: -0.48}
      - {x: -0.69, y: -0.57}
      - {x: -0.75, y: -0.71}
      - {x: -0.77, y: -0.76}
      - {x: -0.88, y: -0.93}
      - {x: -1, y: -1.01}
      - {x: -1.0799999, y: -1.06}
      - {x: -1.2099999, y: -1.06}
      - {x: -1.3199999, y: -1.09}
      - {x: -1.4, y: -1.14}
      - {x: -1.54, y: -1.25}
      - {x: -1.7199999, y: -1.25}
      - {x: -1.8399999, y: -1.29}
      - {x: -1.8299999, y: -1.4}
      - {x: -1.8, y: -1.51}
      - {x: -1.75, y: -1.78}
      - {x: -1.7099999, y: -2}
      - {x: -1.66, y: -2.27}
      - {x: -1.65, y: -2.33}
      - {x: -1.8299999, y: -2.4299998}
      - {x: -1.99, y: -2.53}
      - {x: -2.18, y: -2.6499999}
      - {x: -2.35, y: -2.75}
      - {x: -2.5, y: -2.84}
      - {x: -2.79, y: -3.03}
      - {x: -2.84, y: -3.04}
      - {x: -2.8899999, y: -3.1}
      - {x: -2.97, y: -3.1899998}
      - {x: -3.02, y: -3.3}
      - {x: -3.04, y: -3.4399998}
      - {x: -3.04, y: -3.58}
      - {x: -3.01, y: -3.7099998}
      - {x: -2.95, y: -3.8}
      - {x: -2.95, y: -3.83}
      - {x: -2.8799999, y: -3.8899999}
      - {x: -2.79, y: -3.9499998}
      - {x: -2.6399999, y: -4.02}
      - {x: -2.59, y: -4.0299997}
      - {x: -2.36, y: -4.02}
      - {x: -2.26, y: -4}
      - {x: -2.1399999, y: -3.8999999}
      - {x: -2.05, y: -3.86}
      - {x: -1.99, y: -3.84}
      - {x: -1.93, y: -3.86}
      - {x: -1.91, y: -3.82}
      - {x: -1.93, y: -3.78}
      - {x: -1.8299999, y: -3.72}
      - {x: -1.77, y: -3.6899998}
      - {x: -1.7099999, y: -3.6399999}
      - {x: -1.56, y: -3.54}
      - {x: -1.25, y: -3.35}
      - {x: -1.09, y: -3.25}
      - {x: -0.94, y: -3.1499999}
      - {x: -0.7, y: -3}
      - {x: -0.64, y: -2.95}
      - {x: -0.78, y: -3.52}
      - {x: -0.87, y: -3.97}
      - {x: -0.87, y: -4.21}
      - {x: -0.81, y: -4.33}
      - {x: -0.77, y: -4.39}
      - {x: -0.62, y: -4.54}
      - {x: -0.57, y: -4.56}
      - {x: -0.42, y: -4.5899997}
      - {x: -0.26999998, y: -4.5899997}
      - {x: -0.17999999, y: -4.5699997}
      - {x: -0.14999999, y: -4.56}
      - {x: -0.06, y: -4.5899997}
    - - {x: -0.53, y: -2.44}
      - {x: -0.53999996, y: -2.4299998}
      - {x: -0.53999996, y: -2.35}
      - {x: -0.56, y: -2.3}
      - {x: -0.57, y: -2.31}
      - {x: -0.55, y: -2.34}
      - {x: -0.52, y: -2.3799999}
      - {x: -0.53, y: -2.4299998}
      - {x: -0.53, y: -2.47}
      - {x: -0.53999996, y: -2.48}
      - {x: -0.53999996, y: -2.54}
      - {x: -0.53, y: -2.54}
    - - {x: -1.8299999, y: -1.55}
      - {x: -1.8, y: -1.54}
      - {x: -1.8, y: -1.51}
      - {x: -1.8299999, y: -1.5}
      - {x: -1.8499999, y: -1.52}
    - - {x: -0.01, y: -1.15}
      - {x: 0.02, y: -1.14}
      - {x: 0.02, y: -1.11}
      - {x: -0.01, y: -1.1}
      - {x: -0.03, y: -1.12}
    - - {x: -1.36, y: -0.71999997}
      - {x: -1.29, y: -0.71999997}
      - {x: -1.15, y: -0.64}
      - {x: -1.04, y: -0.59}
      - {x: -0.98999995, y: -0.53}
      - {x: -0.93, y: -0.45}
      - {x: -0.91999996, y: -0.41}
      - {x: -0.94, y: -0.31}
      - {x: -1.15, y: -0.08}
      - {x: -1.3399999, y: 0}
      - {x: -1.49, y: 0.01}
      - {x: -1.65, y: 0.13}
      - {x: -1.65, y: 0.25}
      - {x: -1.55, y: 0.53}
      - {x: -1.41, y: 0.65999997}
      - {x: -1.26, y: 0.74}
      - {x: -1.17, y: 0.75}
      - {x: -0.90999997, y: 0.84999996}
      - {x: -0.82, y: 0.95}
      - {x: -0.83, y: 1.04}
      - {x: -0.96999997, y: 1.15}
      - {x: -1.11, y: 1.24}
      - {x: -1.22, y: 1.26}
      - {x: -1.3399999, y: 1.4499999}
      - {x: -1.41, y: 1.53}
      - {x: -1.42, y: 1.63}
      - {x: -1.42, y: 1.87}
      - {x: -1.35, y: 2.1399999}
      - {x: -1.1899999, y: 2.26}
      - {x: -1, y: 2.33}
      - {x: -0.83, y: 2.35}
      - {x: -0.71999997, y: 2.4299998}
      - {x: -0.56, y: 2.54}
      - {x: -0.53, y: 2.57}
      - {x: -0.52, y: 2.6}
      - {x: -0.52, y: 2.7}
      - {x: -0.53, y: 2.72}
      - {x: -0.69, y: 2.74}
      - {x: -1.01, y: 2.74}
      - {x: -1.13, y: 2.71}
      - {x: -1.22, y: 2.6599998}
      - {x: -1.6999999, y: 2.3899999}
      - {x: -1.81, y: 2.34}
      - {x: -1.88, y: 2.32}
      - {x: -1.9399999, y: 2.32}
      - {x: -1.9499999, y: 2.26}
      - {x: -2.47, y: 1.9699999}
      - {x: -2.57, y: 1.91}
      - {x: -2.6299999, y: 1.8299999}
      - {x: -2.69, y: 1.6999999}
      - {x: -2.7, y: 1.5799999}
      - {x: -2.76, y: 1.3299999}
      - {x: -2.99, y: 0.38}
      - {x: -3.02, y: 0.25}
      - {x: -3.02, y: 0.12}
      - {x: -3.01, y: 0.03}
      - {x: -2.9299998, y: -0.11}
      - {x: -2.84, y: -0.19}
      - {x: -2.8799999, y: -0.22}
      - {x: -2.8799999, y: -0.24}
      - {x: -2.85, y: -0.25}
      - {x: -2.81, y: -0.22999999}
      - {x: -2.6299999, y: -0.29999998}
      - {x: -2.3799999, y: -0.29}
      - {x: -2.28, y: -0.26999998}
      - {x: -2.24, y: -0.22}
      - {x: -2.22, y: -0.16}
      - {x: -2.18, y: -0.17999999}
      - {x: -2.1699998, y: -0.14999999}
      - {x: -2.1699998, y: -0.12}
      - {x: -2.1699998, y: -0.39999998}
      - {x: -2.1399999, y: -0.53999996}
      - {x: -2.03, y: -0.78}
      - {x: -1.9799999, y: -0.84}
      - {x: -1.91, y: -0.96999997}
      - {x: -1.87, y: -0.98999995}
      - {x: -1.8299999, y: -0.98999995}
      - {x: -1.7099999, y: -0.90999997}
      - {x: -1.5999999, y: -0.88}
      - {x: -1.4699999, y: -0.81}
    - - {x: -0.099999994, y: -0.98999995}
      - {x: -0.07, y: -0.97999996}
      - {x: -0.07, y: -0.95}
      - {x: -0.099999994, y: -0.94}
      - {x: -0.12, y: -0.96}
    - - {x: 0.14, y: 0.14}
      - {x: 0.17, y: 0.14999999}
      - {x: 0.17, y: 0.17999999}
      - {x: 0.14, y: 0.19}
      - {x: 0.12, y: 0.17}
    - - {x: -1.99, y: 0.48}
      - {x: -1.9499999, y: 0.7}
      - {x: -1.9499999, y: 0.72999996}
      - {x: -1.9399999, y: 0.74}
      - {x: -1.9399999, y: 0.77}
      - {x: -1.93, y: 0.78}
      - {x: -1.93, y: 0.81}
      - {x: -1.92, y: 0.82}
      - {x: -1.89, y: 0.94}
      - {x: -1.8199999, y: 1.23}
      - {x: -1.77, y: 1.26}
      - {x: -1.76, y: 1.26}
      - {x: -1.75, y: 1.28}
      - {x: -1.77, y: 1.27}
      - {x: -1.77, y: 1.25}
      - {x: -1.78, y: 1.25}
      - {x: -1.8199999, y: 1.16}
      - {x: -1.8499999, y: 1.03}
      - {x: -1.93, y: 0.78}
      - {x: -1.93, y: 0.76}
      - {x: -1.9399999, y: 0.75}
      - {x: -1.9399999, y: 0.72999996}
      - {x: -1.9499999, y: 0.71999997}
      - {x: -1.9499999, y: 0.7}
      - {x: -1.9599999, y: 0.69}
      - {x: -2.02, y: 0.51}
      - {x: -2.03, y: 0.44}
      - {x: -2.02, y: 0.42999998}
    - - {x: 0.71999997, y: 0.64}
      - {x: 0.75, y: 0.65}
      - {x: 0.75, y: 0.68}
      - {x: 0.71999997, y: 0.69}
      - {x: 0.7, y: 0.66999996}
    - - {x: 0.51, y: 0.78999996}
      - {x: 0.53999996, y: 0.79999995}
      - {x: 0.53999996, y: 0.83}
      - {x: 0.51, y: 0.84}
      - {x: 0.48999998, y: 0.82}
--- !u!212 &1618083111
SpriteRenderer:
  m_ObjectHideFlags: 0
  m_CorrespondingSourceObject: {fileID: 0}
  m_PrefabInstance: {fileID: 0}
  m_PrefabAsset: {fileID: 0}
  m_GameObject: {fileID: 1618083108}
  m_Enabled: 1
  m_CastShadows: 0
  m_ReceiveShadows: 0
  m_DynamicOccludee: 1
  m_MotionVectors: 1
  m_LightProbeUsage: 1
  m_ReflectionProbeUsage: 1
  m_RenderingLayerMask: 1
  m_RendererPriority: 0
  m_Materials:
  - {fileID: 10754, guid: 0000000000000000f000000000000000, type: 0}
  m_StaticBatchInfo:
    firstSubMesh: 0
    subMeshCount: 0
  m_StaticBatchRoot: {fileID: 0}
  m_ProbeAnchor: {fileID: 0}
  m_LightProbeVolumeOverride: {fileID: 0}
  m_ScaleInLightmap: 1
  m_ReceiveGI: 1
  m_PreserveUVs: 0
  m_IgnoreNormalsForChartDetection: 0
  m_ImportantGI: 0
  m_StitchLightmapSeams: 0
  m_SelectedEditorRenderState: 0
  m_MinimumChartSize: 4
  m_AutoUVMaxDistance: 0.5
  m_AutoUVMaxAngle: 89
  m_LightmapParameters: {fileID: 0}
  m_SortingLayerID: 0
  m_SortingLayer: 0
  m_SortingOrder: 2
  m_Sprite: {fileID: 21300000, guid: 8bb0d22a926441f4985b5e09deed0c5e, type: 3}
  m_Color: {r: 1, g: 1, b: 1, a: 1}
  m_FlipX: 0
  m_FlipY: 0
  m_DrawMode: 0
  m_Size: {x: 10.24, y: 10.24}
  m_AdaptiveModeThreshold: 0.5
  m_SpriteTileMode: 0
  m_WasSpriteAssigned: 1
  m_MaskInteraction: 0
  m_SpriteSortPoint: 0
--- !u!1 &1970964553
GameObject:
  m_ObjectHideFlags: 0
  m_CorrespondingSourceObject: {fileID: 0}
  m_PrefabInstance: {fileID: 0}
  m_PrefabAsset: {fileID: 0}
  serializedVersion: 6
  m_Component:
  - component: {fileID: 1970964554}
  - component: {fileID: 1970964555}
  m_Layer: 0
  m_Name: Hito_Shape
  m_TagString: Untagged
  m_Icon: {fileID: 0}
  m_NavMeshLayer: 0
  m_StaticEditorFlags: 0
  m_IsActive: 1
--- !u!4 &1970964554
Transform:
  m_ObjectHideFlags: 0
  m_CorrespondingSourceObject: {fileID: 0}
  m_PrefabInstance: {fileID: 0}
  m_PrefabAsset: {fileID: 0}
  m_GameObject: {fileID: 1970964553}
  m_LocalRotation: {x: -0, y: -0, z: 0.8210994, w: 0.57078534}
  m_LocalPosition: {x: 0, y: 0, z: 0}
  m_LocalScale: {x: 2.6572034, y: 2.6572034, z: 2.6572}
  m_Children: []
  m_Father: {fileID: 2049825793}
  m_RootOrder: 2
  m_LocalEulerAnglesHint: {x: 0, y: 0, z: 0}
--- !u!212 &1970964555
SpriteRenderer:
  m_ObjectHideFlags: 0
  m_CorrespondingSourceObject: {fileID: 0}
  m_PrefabInstance: {fileID: 0}
  m_PrefabAsset: {fileID: 0}
  m_GameObject: {fileID: 1970964553}
  m_Enabled: 1
  m_CastShadows: 0
  m_ReceiveShadows: 0
  m_DynamicOccludee: 1
  m_MotionVectors: 1
  m_LightProbeUsage: 1
  m_ReflectionProbeUsage: 1
  m_RenderingLayerMask: 1
  m_RendererPriority: 0
  m_Materials:
  - {fileID: 10754, guid: 0000000000000000f000000000000000, type: 0}
  m_StaticBatchInfo:
    firstSubMesh: 0
    subMeshCount: 0
  m_StaticBatchRoot: {fileID: 0}
  m_ProbeAnchor: {fileID: 0}
  m_LightProbeVolumeOverride: {fileID: 0}
  m_ScaleInLightmap: 1
  m_ReceiveGI: 1
  m_PreserveUVs: 0
  m_IgnoreNormalsForChartDetection: 0
  m_ImportantGI: 0
  m_StitchLightmapSeams: 0
  m_SelectedEditorRenderState: 0
  m_MinimumChartSize: 4
  m_AutoUVMaxDistance: 0.5
  m_AutoUVMaxAngle: 89
  m_LightmapParameters: {fileID: 0}
  m_SortingLayerID: 0
  m_SortingLayer: 0
  m_SortingOrder: 1
  m_Sprite: {fileID: 21300000, guid: 289ece0520b9a6d449900bd1009e3105, type: 3}
  m_Color: {r: 1, g: 1, b: 1, a: 1}
  m_FlipX: 0
  m_FlipY: 0
  m_DrawMode: 0
  m_Size: {x: 10.24, y: 10.24}
  m_AdaptiveModeThreshold: 0.5
  m_SpriteTileMode: 0
  m_WasSpriteAssigned: 1
  m_MaskInteraction: 0
  m_SpriteSortPoint: 0
--- !u!1 &2049825791
GameObject:
  m_ObjectHideFlags: 0
  m_CorrespondingSourceObject: {fileID: 0}
  m_PrefabInstance: {fileID: 0}
  m_PrefabAsset: {fileID: 0}
  serializedVersion: 6
  m_Component:
  - component: {fileID: 2049825793}
  - component: {fileID: 2049825792}
  m_Layer: 0
  m_Name: Hito
  m_TagString: Untagged
  m_Icon: {fileID: 0}
  m_NavMeshLayer: 0
  m_StaticEditorFlags: 0
  m_IsActive: 1
--- !u!114 &2049825792
MonoBehaviour:
  m_ObjectHideFlags: 0
  m_CorrespondingSourceObject: {fileID: 0}
  m_PrefabInstance: {fileID: 0}
  m_PrefabAsset: {fileID: 0}
  m_GameObject: {fileID: 2049825791}
  m_Enabled: 1
  m_EditorHideFlags: 0
  m_Script: {fileID: 11500000, guid: 096b862c66e467f4fbf96d16548fc536, type: 3}
  m_Name: 
  m_EditorClassIdentifier: 
  speed: 0.5
--- !u!4 &2049825793
Transform:
  m_ObjectHideFlags: 0
  m_CorrespondingSourceObject: {fileID: 0}
  m_PrefabInstance: {fileID: 0}
  m_PrefabAsset: {fileID: 0}
  m_GameObject: {fileID: 2049825791}
  m_LocalRotation: {x: 0, y: 0, z: 0, w: 1}
  m_LocalPosition: {x: 9.5, y: -3.6000004, z: 0}
  m_LocalScale: {x: 1, y: 1, z: 1}
  m_Children:
  - {fileID: 1093134446}
  - {fileID: 1618083109}
  - {fileID: 1970964554}
  - {fileID: 701393608}
  m_Father: {fileID: 0}
  m_RootOrder: 4
  m_LocalEulerAnglesHint: {x: 0, y: 0, z: 0}
--- !u!1 &2104335862
GameObject:
  m_ObjectHideFlags: 0
  m_CorrespondingSourceObject: {fileID: 0}
  m_PrefabInstance: {fileID: 0}
  m_PrefabAsset: {fileID: 0}
  serializedVersion: 6
  m_Component:
  - component: {fileID: 2104335865}
  - component: {fileID: 2104335864}
  - component: {fileID: 2104335863}
  m_Layer: 0
  m_Name: EventSystem
  m_TagString: Untagged
  m_Icon: {fileID: 0}
  m_NavMeshLayer: 0
  m_StaticEditorFlags: 0
  m_IsActive: 1
--- !u!114 &2104335863
MonoBehaviour:
  m_ObjectHideFlags: 0
  m_CorrespondingSourceObject: {fileID: 0}
  m_PrefabInstance: {fileID: 0}
  m_PrefabAsset: {fileID: 0}
  m_GameObject: {fileID: 2104335862}
  m_Enabled: 1
  m_EditorHideFlags: 0
  m_Script: {fileID: 1077351063, guid: f70555f144d8491a825f0804e09c671c, type: 3}
  m_Name: 
  m_EditorClassIdentifier: 
  m_HorizontalAxis: Horizontal
  m_VerticalAxis: Vertical
  m_SubmitButton: Submit
  m_CancelButton: Cancel
  m_InputActionsPerSecond: 10
  m_RepeatDelay: 0.5
  m_ForceModuleActive: 0
--- !u!114 &2104335864
MonoBehaviour:
  m_ObjectHideFlags: 0
  m_CorrespondingSourceObject: {fileID: 0}
  m_PrefabInstance: {fileID: 0}
  m_PrefabAsset: {fileID: 0}
  m_GameObject: {fileID: 2104335862}
  m_Enabled: 1
  m_EditorHideFlags: 0
  m_Script: {fileID: -619905303, guid: f70555f144d8491a825f0804e09c671c, type: 3}
  m_Name: 
  m_EditorClassIdentifier: 
  m_FirstSelected: {fileID: 0}
  m_sendNavigationEvents: 1
  m_DragThreshold: 10
--- !u!4 &2104335865
Transform:
  m_ObjectHideFlags: 0
  m_CorrespondingSourceObject: {fileID: 0}
  m_PrefabInstance: {fileID: 0}
  m_PrefabAsset: {fileID: 0}
  m_GameObject: {fileID: 2104335862}
  m_LocalRotation: {x: 0, y: 0, z: 0, w: 1}
  m_LocalPosition: {x: 0, y: 0, z: 0}
  m_LocalScale: {x: 1, y: 1, z: 1}
  m_Children: []
  m_Father: {fileID: 0}
  m_RootOrder: 3
  m_LocalEulerAnglesHint: {x: 0, y: 0, z: 0}
