%YAML 1.1
%TAG !u! tag:unity3d.com,2011:
--- !u!162 &1
EditorUserSettings:
  m_ObjectHideFlags: 0
  serializedVersion: 4
  m_ConfigSettings:
    RecentlyUsedScenePath-0:
      value: 224247031146467b200f052c3d2651055923113e202d68252320092a
      flags: 0
    RecentlyUsedScenePath-1:
      value: 224247031146467b200f052c3d26510559240c2b2b2d1535212c1e27acf53a31f6fe
      flags: 0
    RecentlyUsedScenePath-2:
      value: 224247031146467a5d5f33031c2f122419021b22631b2535232c0e7cc3b06507d2eb37f0ee3438722c0ce6281d
      flags: 0
    RecentlyUsedScenePath-3:
      value: 224247031146467a5d5f33031c2f122419021b22631b2535232c0e7cc3b06507d6ee22e5e2742a323016f6
      flags: 0
    RecentlyUsedScenePath-4:
      value: 224247031146467a5d5f33031c2f122419021b22631b2535232c0e7cc3b06507d0e225fceb2e7129370bfb25
      flags: 0
    vcSharedLogLevel:
      value: 0d5e400f0650
      flags: 0
  m_VCAutomaticAdd: 1
  m_VCDebugCom: 0
  m_VCDebugCmd: 0
  m_VCDebugOut: 0
  m_SemanticMergeMode: 2
  m_VCShowFailedCheckout: 1
  m_VCOverwriteFailedCheckoutAssets: 1
  m_VCProjectOverlayIcons: 1
  m_VCHierarchyOverlayIcons: 1
  m_VCOtherOverlayIcons: 1
  m_VCAllowAsyncUpdate: 0
